assign4
…
lm_model2 = 
  linear_reg() %>% 
  set_engine("lm")

lm_wflow2 = 
  workflow() %>%
  add_model(lm_model2) %>%
  add_recipe(bball_recipe2)

lm_fit2 = fit(lm_wflow2, data = bball)

options(scipen = 999)
tidy(lm_fit2)

# A tibble: 38 × 5
   term         estimate std.error statistic  p.value
   <chr>           <dbl>     <dbl>     <dbl>    <dbl>
 1 (Intercept) -3.75e-14  6.08e-15    -6.17  7.23e-10
 2 posSF       -2.51e-15  1.72e-16   -14.6   1.05e-47
 3 posPF       -1.60e-15  1.36e-16   -11.8   7.21e-32
 4 posPG       -4.89e-16  2.26e-16    -2.16  3.09e- 2
 5 posSG       -2.68e-15  1.93e-16   -13.9   2.32e-43
 6 age         -7.49e-17  1.08e-17    -6.91  5.17e-12
 7 g            1.85e-17  2.22e-18     8.34  8.10e-17
 8 fg_per_g     5.05e-15  1.48e-15     3.40  6.66e- 4
 9 fga_per_g    7.40e-16  9.53e-16     0.777 4.37e- 1
10 fg_pct      -2.12e-14  3.14e-15    -6.76  1.40e-11
# ℹ 28 more rows
…
